{
    "key": "group_5eb97a49ad19c",
    "title": "Bloc Steps line",
    "fields": [
        {
            "key": "field_5eb97a52ff869",
            "label": "Image",
            "name": "image",
            "type": "image",
            "instructions": "Image : largeur 600px minimum, 1000px maximum. Pas de contrainte pour la hauteur | Poids maximal: 2Mb",
            "required": 0,
            "conditional_logic": 0,
            "wrapper": {
                "width": "",
                "class": "",
                "id": ""
            },
            "return_format": "id",
            "preview_size": "medium",
            "library": "all",
            "min_width": 600,
            "min_height": "",
            "min_size": "",
            "max_width": "",
            "max_height": "",
            "max_size": 2,
            "mime_types": ""
        },
        {
            "key": "field_5eb97a66ff86a",
            "label": "Image mobile",
            "name": "image-mobile",
            "type": "image",
            "instructions": "Image : largeur 600px minimum, 1000px maximum. Pas de contrainte pour la hauteur | Poids maximal: 2Mb",
            "required": 0,
            "conditional_logic": 0,
            "wrapper": {
                "width": "",
                "class": "",
                "id": ""
            },
            "return_format": "id",
            "preview_size": "medium",
            "library": "all",
            "min_width": 600,
            "min_height": "",
            "min_size": "",
            "max_width": "",
            "max_height": "",
            "max_size": 2,
            "mime_types": ""
        }
    ],
    "location": [
        [
            {
                "param": "block",
                "operator": "==",
                "value": "acf\/steps-line"
            }
        ]
    ],
    "menu_order": 0,
    "position": "normal",
    "style": "default",
    "label_placement": "top",
    "instruction_placement": "label",
    "hide_on_screen": "",
    "active": true,
    "description": "",
    "modified": 1591869392
}