<?xml version="1.0" encoding="utf-8"?>
<!-- Generator: Adobe Illustrator 23.1.1, SVG Export Plug-In . SVG Version: 6.00 Build 0)  -->
<svg version="1.1" id="Calque_1" xmlns="http://www.w3.org/2000/svg" xmlns:xlink="http://www.w3.org/1999/xlink" x="0px" y="0px"
	 viewBox="0 0 20 12" style="enable-background:new 0 0 20 12;" xml:space="preserve">
<style type="text/css">
	.st0{fill:#FFFFFF;}
</style>
<path class="st0" d="M19.5,0.9c-0.4-0.4-1-0.4-1.4,0L9.9,9L1.8,0.9c-0.4-0.4-1-0.4-1.4,0S0,1.9,0.3,2.3l8.9,8.9c0.4,0.4,1,0.4,1.4,0
	l8.9-8.9C19.9,1.9,19.9,1.3,19.5,0.9z"/>
</svg>
