<?xml version="1.0" encoding="utf-8"?>
<!-- Generator: Adobe Illustrator 23.1.1, SVG Export Plug-In . SVG Version: 6.00 Build 0)  -->
<svg version="1.1" id="Calque_1" xmlns="http://www.w3.org/2000/svg" xmlns:xlink="http://www.w3.org/1999/xlink" x="0px" y="0px"
	 viewBox="0 0 80 80" style="enable-background:new 0 0 80 80;" xml:space="preserve">
<style type="text/css">
	.st0{fill:#1AB8EC;}
</style>
<g id="DESIGNED_BY_FREEPIK">
</g>
<g id="Mode_Isolation">
	<path class="st0" d="M0.5,14.6c7.2-4.4,10-6.2,13.5-8.3c30.3,39,65.5,53.5,65.5,53.5l-5.9,13.8C73.6,73.6,28.9,53.1,0.5,14.6z"/>
</g>
</svg>
