<?xml version="1.0" encoding="utf-8"?>
<!-- Generator: Adobe Illustrator 23.1.1, SVG Export Plug-In . SVG Version: 6.00 Build 0)  -->
<svg version="1.1" id="Calque_1" xmlns="http://www.w3.org/2000/svg" xmlns:xlink="http://www.w3.org/1999/xlink" x="0px" y="0px"
	 viewBox="0 0 80 80" style="enable-background:new 0 0 80 80;" xml:space="preserve">
<style type="text/css">
	.st0{fill:#144660;}
</style>
<g>
	<g>
		<g>
			<g>
				<g>
					<path class="st0" d="M40.1,80l-35-21.1V20.5L40.7,0l34.2,20.9v39.3l-0.4,0.2L40.1,80z M6.8,58l33.4,20.1l33.1-18.9V21.8
						L40.6,1.9L6.8,21.4V58z"/>
				</g>
			</g>
		</g>
	</g>
</g>
</svg>
